Place,Name,Sex,BirthDate,Age,Country,State,Equipment,Division,BodyweightKg,WeightClassKg,Squat1Kg,Squat2Kg,Squat3Kg,Best3SquatKg,Bench1Kg,Bench2Kg,Bench3Kg,Best3BenchKg,Deadlift1Kg,Deadlift2Kg,Deadlift3Kg,Best3DeadliftKg,TotalKg,Event
1,Melody Chambers,F,1986-11-03,36,Australia,SA,Raw,Open,101.42,110,135,145,155,155,75,82.5,87.5,87.5,150,170,180,180,422.5,SBD
1,Matthew Reimers,M,1978-12-23,44,Australia,SA,Raw,M40-44,106.62,110,160,185,-200,185,120,127.5,130,130,237.5,252.5,262.5,262.5,577.5,SBD
1,Declan Hart,M,,24,,,Raw,Open,86.04,90,135,150,157.5,157.5,85,95,100,100,160,180,190,190,447.5,SBD
1,Joseph Vlachoulis,M,1997-01-31,26,Australia,SA,Raw,Open,97.68,100,190,200,207.5,207.5,-122.5,125,-135,125,185,197.5,205,205,537.5,SBD
2,Bryn Norris,M,2000-09-22,22,Australia,SA,Raw,Open,95.26,100,145,157.5,165,165,90,97.5,100,100,147.5,165,175,175,440,SBD
1,Matthew Reimers,M,1978-12-23,44,Australia,SA,Raw,Open,106.62,110,160,185,-200,185,120,127.5,130,130,237.5,252.5,262.5,262.5,577.5,SBD
1,Matthew Hay,M,1992-05-04,31,Australia,SA,Raw,Open,143.04,140+,230,250,257.5,257.5,147.5,155,161,161,270,290,-310,290,708.5,SBD
1,Nick Davey,M,,68,,,Raw,M65-69,93.66,100,,,,,80,87.5,90,90,105,115,122.5,122.5,212.5,BD
1,Nick Davey,M,,68,,,Raw,Open,93.66,100,,,,,80,87.5,90,90,105,115,122.5,122.5,212.5,BD
